^C:\USERS\KRISU\DESKTOP\GLENGINE\GLENGINE\ENGINE\RELEASE\MAIN.OBJ
/OUT:"C:\USERS\KRISU\DESKTOP\GLENGINE\GLENGINE\RELEASE\ENGINE.EXE" /INCREMENTAL:NO /NOLOGO /LIBPATH:C:\USERS\KRISU\DESKTOP\GLENGINE\GLENGINE\/ENGINE/EXTERNALS/LIBS OPENGL32.LIB GLEW32.LIB GLFW3DLL.LIB BULLETCOLLISION.LIB BULLETDYNAMICS.LIB LINEARMATH.LIB KERNEL32.LIB USER32.LIB GDI32.LIB WINSPOOL.LIB COMDLG32.LIB ADVAPI32.LIB SHELL32.LIB OLE32.LIB OLEAUT32.LIB UUID.LIB ODBC32.LIB ODBCCP32.LIB /MANIFEST /MANIFESTUAC:"level='asInvoker' uiAccess='false'" /manifest:embed /DEBUG /PDB:"C:\USERS\KRISU\DESKTOP\GLENGINE\GLENGINE\RELEASE\ENGINE.PDB" /SUBSYSTEM:CONSOLE /OPT:REF /OPT:ICF /LTCG:incremental /TLBID:1 /DYNAMICBASE /NXCOMPAT /IMPLIB:"C:\USERS\KRISU\DESKTOP\GLENGINE\GLENGINE\RELEASE\ENGINE.LIB" /MACHINE:X86 /SAFESEH RELEASE\MAIN.OBJ
^C:\GITREPOSITIORIES\GLENGINE\ENGINE\RELEASE\BOXCOLLIDER.OBJ|C:\GITREPOSITIORIES\GLENGINE\ENGINE\RELEASE\BULLET.OBJ|C:\GITREPOSITIORIES\GLENGINE\ENGINE\RELEASE\CAMERA.OBJ|C:\GITREPOSITIORIES\GLENGINE\ENGINE\RELEASE\ENGINEINSTANCE.OBJ|C:\GITREPOSITIORIES\GLENGINE\ENGINE\RELEASE\FLOOR.OBJ|C:\GITREPOSITIORIES\GLENGINE\ENGINE\RELEASE\GAMEOBJECT.OBJ|C:\GITREPOSITIORIES\GLENGINE\ENGINE\RELEASE\MAIN.OBJ|C:\GITREPOSITIORIES\GLENGINE\ENGINE\RELEASE\MATERIAL.OBJ|C:\GITREPOSITIORIES\GLENGINE\ENGINE\RELEASE\MESH.OBJ|C:\GITREPOSITIORIES\GLENGINE\ENGINE\RELEASE\MESHRENDERER.OBJ|C:\GITREPOSITIORIES\GLENGINE\ENGINE\RELEASE\PICKUP.OBJ|C:\GITREPOSITIORIES\GLENGINE\ENGINE\RELEASE\PLATFORM.OBJ|C:\GITREPOSITIORIES\GLENGINE\ENGINE\RELEASE\PLAYERCHARACTER.OBJ|C:\GITREPOSITIORIES\GLENGINE\ENGINE\RELEASE\SHADER.OBJ|C:\GITREPOSITIORIES\GLENGINE\ENGINE\RELEASE\STATICMESH.OBJ|C:\GITREPOSITIORIES\GLENGINE\ENGINE\RELEASE\TARGET.OBJ|C:\GITREPOSITIORIES\GLENGINE\ENGINE\RELEASE\TRANSFORM.OBJ|C:\GITREPOSITIORIES\GLENGINE\ENGINE\RELEASE\UIOBJECT.OBJ|C:\GITREPOSITIORIES\GLENGINE\ENGINE\RELEASE\VERTEX.OBJ|C:\GITREPOSITIORIES\GLENGINE\ENGINE\RELEASE\WORLD.OBJ
/OUT:"C:\GITREPOSITIORIES\GLENGINE\RELEASE\ENGINE.EXE" /INCREMENTAL:NO /NOLOGO /LIBPATH:C:\GITREPOSITIORIES\GLENGINE\/ENGINE/EXTERNALS/LIBS OPENGL32.LIB GLEW32.LIB GLFW3DLL.LIB BULLETCOLLISION.LIB BULLETDYNAMICS.LIB LINEARMATH.LIB KERNEL32.LIB USER32.LIB GDI32.LIB WINSPOOL.LIB COMDLG32.LIB ADVAPI32.LIB SHELL32.LIB OLE32.LIB OLEAUT32.LIB UUID.LIB ODBC32.LIB ODBCCP32.LIB /MANIFEST /MANIFESTUAC:"level='asInvoker' uiAccess='false'" /manifest:embed /DEBUG /PDB:"C:\GITREPOSITIORIES\GLENGINE\RELEASE\ENGINE.PDB" /SUBSYSTEM:CONSOLE /OPT:REF /OPT:ICF /LTCG:incremental /TLBID:1 /DYNAMICBASE /NXCOMPAT /IMPLIB:"C:\GITREPOSITIORIES\GLENGINE\RELEASE\ENGINE.LIB" /MACHINE:X86 /SAFESEH RELEASE\BOXCOLLIDER.OBJRELEASE\BULLET.OBJRELEASE\CAMERA.OBJRELEASE\ENGINEINSTANCE.OBJRELEASE\FLOOR.OBJRELEASE\GAMEOBJECT.OBJRELEASE\MAIN.OBJRELEASE\MATERIAL.OBJRELEASE\MESH.OBJRELEASE\MESHRENDERER.OBJRELEASE\PICKUP.OBJRELEASE\PLATFORM.OBJRELEASE\PLAYERCHARACTER.OBJRELEASE\SHADER.OBJRELEASE\STATICMESH.OBJRELEASE\TARGET.OBJRELEASE\TRANSFORM.OBJRELEASE\UIOBJECT.OBJRELEASE\VERTEX.OBJRELEASE\WORLD.OBJ
