^C:\USERS\KRISU\DESKTOP\GLENGINE\GLENGINE\ENGINE\RELEASE\MAIN.OBJ
C:\USERS\KRISU\DESKTOP\GLENGINE\GLENGINE\RELEASE\ENGINE.EXE
C:\USERS\KRISU\DESKTOP\GLENGINE\GLENGINE\RELEASE\ENGINE.PDB
^C:\GITREPOSITIORIES\GLENGINE\ENGINE\RELEASE\BOXCOLLIDER.OBJ|C:\GITREPOSITIORIES\GLENGINE\ENGINE\RELEASE\BULLET.OBJ|C:\GITREPOSITIORIES\GLENGINE\ENGINE\RELEASE\CAMERA.OBJ|C:\GITREPOSITIORIES\GLENGINE\ENGINE\RELEASE\ENGINEINSTANCE.OBJ|C:\GITREPOSITIORIES\GLENGINE\ENGINE\RELEASE\FLOOR.OBJ|C:\GITREPOSITIORIES\GLENGINE\ENGINE\RELEASE\GAMEOBJECT.OBJ|C:\GITREPOSITIORIES\GLENGINE\ENGINE\RELEASE\MAIN.OBJ|C:\GITREPOSITIORIES\GLENGINE\ENGINE\RELEASE\MATERIAL.OBJ|C:\GITREPOSITIORIES\GLENGINE\ENGINE\RELEASE\MESH.OBJ|C:\GITREPOSITIORIES\GLENGINE\ENGINE\RELEASE\MESHRENDERER.OBJ|C:\GITREPOSITIORIES\GLENGINE\ENGINE\RELEASE\PICKUP.OBJ|C:\GITREPOSITIORIES\GLENGINE\ENGINE\RELEASE\PLATFORM.OBJ|C:\GITREPOSITIORIES\GLENGINE\ENGINE\RELEASE\PLAYERCHARACTER.OBJ|C:\GITREPOSITIORIES\GLENGINE\ENGINE\RELEASE\SHADER.OBJ|C:\GITREPOSITIORIES\GLENGINE\ENGINE\RELEASE\STATICMESH.OBJ|C:\GITREPOSITIORIES\GLENGINE\ENGINE\RELEASE\TARGET.OBJ|C:\GITREPOSITIORIES\GLENGINE\ENGINE\RELEASE\TRANSFORM.OBJ|C:\GITREPOSITIORIES\GLENGINE\ENGINE\RELEASE\UIOBJECT.OBJ|C:\GITREPOSITIORIES\GLENGINE\ENGINE\RELEASE\VERTEX.OBJ|C:\GITREPOSITIORIES\GLENGINE\ENGINE\RELEASE\WORLD.OBJ
C:\GITREPOSITIORIES\GLENGINE\RELEASE\ENGINE.EXE
C:\GITREPOSITIORIES\GLENGINE\RELEASE\ENGINE.PDB
