^C:\GITREPOSITIORIES\GLENGINE\ENGINE\BOXCOLLIDER.CPP|C:\GITREPOSITIORIES\GLENGINE\ENGINE\BULLET.CPP|C:\GITREPOSITIORIES\GLENGINE\ENGINE\CAMERA.CPP|C:\GITREPOSITIORIES\GLENGINE\ENGINE\ENGINEINSTANCE.CPP|C:\GITREPOSITIORIES\GLENGINE\ENGINE\FLOOR.CPP|C:\GITREPOSITIORIES\GLENGINE\ENGINE\GAMEOBJECT.CPP|C:\GITREPOSITIORIES\GLENGINE\ENGINE\MAIN.CPP|C:\GITREPOSITIORIES\GLENGINE\ENGINE\MATERIAL.CPP|C:\GITREPOSITIORIES\GLENGINE\ENGINE\MESH.CPP|C:\GITREPOSITIORIES\GLENGINE\ENGINE\MESHRENDERER.CPP|C:\GITREPOSITIORIES\GLENGINE\ENGINE\PICKUP.CPP|C:\GITREPOSITIORIES\GLENGINE\ENGINE\PLATFORM.CPP|C:\GITREPOSITIORIES\GLENGINE\ENGINE\PLAYERCHARACTER.CPP|C:\GITREPOSITIORIES\GLENGINE\ENGINE\SHADER.CPP|C:\GITREPOSITIORIES\GLENGINE\ENGINE\STATICMESH.CPP|C:\GITREPOSITIORIES\GLENGINE\ENGINE\TARGET.CPP|C:\GITREPOSITIORIES\GLENGINE\ENGINE\TRANSFORM.CPP|C:\GITREPOSITIORIES\GLENGINE\ENGINE\UIOBJECT.CPP|C:\GITREPOSITIORIES\GLENGINE\ENGINE\VERTEX.CPP|C:\GITREPOSITIORIES\GLENGINE\ENGINE\WORLD.CPP
C:\GITREPOSITIORIES\GLENGINE\ENGINE\DEBUG\VC141.PDB
C:\GITREPOSITIORIES\GLENGINE\ENGINE\DEBUG\VC141.IDB
C:\GITREPOSITIORIES\GLENGINE\ENGINE\DEBUG\BOXCOLLIDER.OBJ
C:\GITREPOSITIORIES\GLENGINE\ENGINE\DEBUG\BULLET.OBJ
C:\GITREPOSITIORIES\GLENGINE\ENGINE\DEBUG\CAMERA.OBJ
C:\GITREPOSITIORIES\GLENGINE\ENGINE\DEBUG\ENGINEINSTANCE.OBJ
C:\GITREPOSITIORIES\GLENGINE\ENGINE\DEBUG\FLOOR.OBJ
C:\GITREPOSITIORIES\GLENGINE\ENGINE\DEBUG\GAMEOBJECT.OBJ
C:\GITREPOSITIORIES\GLENGINE\ENGINE\DEBUG\MAIN.OBJ
C:\GITREPOSITIORIES\GLENGINE\ENGINE\DEBUG\MATERIAL.OBJ
C:\GITREPOSITIORIES\GLENGINE\ENGINE\DEBUG\MESH.OBJ
C:\GITREPOSITIORIES\GLENGINE\ENGINE\DEBUG\MESHRENDERER.OBJ
C:\GITREPOSITIORIES\GLENGINE\ENGINE\DEBUG\PICKUP.OBJ
C:\GITREPOSITIORIES\GLENGINE\ENGINE\DEBUG\PLATFORM.OBJ
C:\GITREPOSITIORIES\GLENGINE\ENGINE\DEBUG\PLAYERCHARACTER.OBJ
C:\GITREPOSITIORIES\GLENGINE\ENGINE\DEBUG\SHADER.OBJ
C:\GITREPOSITIORIES\GLENGINE\ENGINE\DEBUG\STATICMESH.OBJ
C:\GITREPOSITIORIES\GLENGINE\ENGINE\DEBUG\TARGET.OBJ
C:\GITREPOSITIORIES\GLENGINE\ENGINE\DEBUG\TRANSFORM.OBJ
C:\GITREPOSITIORIES\GLENGINE\ENGINE\DEBUG\UIOBJECT.OBJ
C:\GITREPOSITIORIES\GLENGINE\ENGINE\DEBUG\VERTEX.OBJ
C:\GITREPOSITIORIES\GLENGINE\ENGINE\DEBUG\WORLD.OBJ
^C:\GITREPOSITIORIES\GLENGINE\ENGINE\BOXCOLLIDER.CPP
C:\GITREPOSITIORIES\GLENGINE\ENGINE\DEBUG\VC141.PDB
^C:\GITREPOSITIORIES\GLENGINE\ENGINE\BULLET.CPP
C:\GITREPOSITIORIES\GLENGINE\ENGINE\DEBUG\VC141.PDB
^C:\GITREPOSITIORIES\GLENGINE\ENGINE\CAMERA.CPP
C:\GITREPOSITIORIES\GLENGINE\ENGINE\DEBUG\VC141.PDB
^C:\GITREPOSITIORIES\GLENGINE\ENGINE\ENGINEINSTANCE.CPP
C:\GITREPOSITIORIES\GLENGINE\ENGINE\DEBUG\VC141.PDB
C:\GITREPOSITIORIES\GLENGINE\ENGINE\DEBUG\VC141.IDB
C:\GITREPOSITIORIES\GLENGINE\ENGINE\DEBUG\ENGINEINSTANCE.OBJ
^C:\GITREPOSITIORIES\GLENGINE\ENGINE\FLOOR.CPP
C:\GITREPOSITIORIES\GLENGINE\ENGINE\DEBUG\VC141.PDB
C:\GITREPOSITIORIES\GLENGINE\ENGINE\DEBUG\VC141.IDB
C:\GITREPOSITIORIES\GLENGINE\ENGINE\DEBUG\FLOOR.OBJ
^C:\GITREPOSITIORIES\GLENGINE\ENGINE\GAMEOBJECT.CPP
C:\GITREPOSITIORIES\GLENGINE\ENGINE\DEBUG\VC141.PDB
^C:\GITREPOSITIORIES\GLENGINE\ENGINE\MAIN.CPP
C:\GITREPOSITIORIES\GLENGINE\ENGINE\DEBUG\VC141.PDB
C:\GITREPOSITIORIES\GLENGINE\ENGINE\DEBUG\VC141.IDB
C:\GITREPOSITIORIES\GLENGINE\ENGINE\DEBUG\MAIN.OBJ
^C:\GITREPOSITIORIES\GLENGINE\ENGINE\MATERIAL.CPP
C:\GITREPOSITIORIES\GLENGINE\ENGINE\DEBUG\VC141.PDB
C:\GITREPOSITIORIES\GLENGINE\ENGINE\DEBUG\VC141.IDB
C:\GITREPOSITIORIES\GLENGINE\ENGINE\DEBUG\MATERIAL.OBJ
^C:\GITREPOSITIORIES\GLENGINE\ENGINE\MESH.CPP
C:\GITREPOSITIORIES\GLENGINE\ENGINE\DEBUG\VC141.PDB
^C:\GITREPOSITIORIES\GLENGINE\ENGINE\MESHRENDERER.CPP
C:\GITREPOSITIORIES\GLENGINE\ENGINE\DEBUG\VC141.PDB
^C:\GITREPOSITIORIES\GLENGINE\ENGINE\PICKUP.CPP
C:\GITREPOSITIORIES\GLENGINE\ENGINE\DEBUG\VC141.PDB
^C:\GITREPOSITIORIES\GLENGINE\ENGINE\PLATFORM.CPP
C:\GITREPOSITIORIES\GLENGINE\ENGINE\DEBUG\VC141.PDB
^C:\GITREPOSITIORIES\GLENGINE\ENGINE\PLAYERCHARACTER.CPP
C:\GITREPOSITIORIES\GLENGINE\ENGINE\DEBUG\VC141.PDB
C:\GITREPOSITIORIES\GLENGINE\ENGINE\DEBUG\VC141.IDB
C:\GITREPOSITIORIES\GLENGINE\ENGINE\DEBUG\PLAYERCHARACTER.OBJ
^C:\GITREPOSITIORIES\GLENGINE\ENGINE\SHADER.CPP
C:\GITREPOSITIORIES\GLENGINE\ENGINE\DEBUG\VC141.PDB
^C:\GITREPOSITIORIES\GLENGINE\ENGINE\STATICMESH.CPP
C:\GITREPOSITIORIES\GLENGINE\ENGINE\DEBUG\VC141.PDB
^C:\GITREPOSITIORIES\GLENGINE\ENGINE\TARGET.CPP
C:\GITREPOSITIORIES\GLENGINE\ENGINE\DEBUG\VC141.PDB
^C:\GITREPOSITIORIES\GLENGINE\ENGINE\TRANSFORM.CPP
C:\GITREPOSITIORIES\GLENGINE\ENGINE\DEBUG\VC141.PDB
^C:\GITREPOSITIORIES\GLENGINE\ENGINE\UIOBJECT.CPP
C:\GITREPOSITIORIES\GLENGINE\ENGINE\DEBUG\VC141.PDB
C:\GITREPOSITIORIES\GLENGINE\ENGINE\DEBUG\VC141.IDB
C:\GITREPOSITIORIES\GLENGINE\ENGINE\DEBUG\UIOBJECT.OBJ
^C:\GITREPOSITIORIES\GLENGINE\ENGINE\VERTEX.CPP
C:\GITREPOSITIORIES\GLENGINE\ENGINE\DEBUG\VC141.PDB
^C:\GITREPOSITIORIES\GLENGINE\ENGINE\WORLD.CPP
C:\GITREPOSITIORIES\GLENGINE\ENGINE\DEBUG\VC141.PDB
C:\GITREPOSITIORIES\GLENGINE\ENGINE\DEBUG\VC141.IDB
C:\GITREPOSITIORIES\GLENGINE\ENGINE\DEBUG\WORLD.OBJ
^C:\GITREPOSITIORIES\GLENGINE\ENGINE\ENGINEINSTANCE.CPP|C:\GITREPOSITIORIES\GLENGINE\ENGINE\MAIN.CPP
C:\GITREPOSITIORIES\GLENGINE\ENGINE\DEBUG\VC141.PDB
C:\GITREPOSITIORIES\GLENGINE\ENGINE\DEBUG\VC141.IDB
C:\GITREPOSITIORIES\GLENGINE\ENGINE\DEBUG\ENGINEINSTANCE.OBJ
C:\GITREPOSITIORIES\GLENGINE\ENGINE\DEBUG\MAIN.OBJ
^C:\GITREPOSITIORIES\GLENGINE\ENGINE\BULLET.CPP|C:\GITREPOSITIORIES\GLENGINE\ENGINE\ENGINEINSTANCE.CPP|C:\GITREPOSITIORIES\GLENGINE\ENGINE\FLOOR.CPP|C:\GITREPOSITIORIES\GLENGINE\ENGINE\GAMEOBJECT.CPP|C:\GITREPOSITIORIES\GLENGINE\ENGINE\MAIN.CPP|C:\GITREPOSITIORIES\GLENGINE\ENGINE\PICKUP.CPP|C:\GITREPOSITIORIES\GLENGINE\ENGINE\PLATFORM.CPP|C:\GITREPOSITIORIES\GLENGINE\ENGINE\PLAYERCHARACTER.CPP|C:\GITREPOSITIORIES\GLENGINE\ENGINE\TARGET.CPP|C:\GITREPOSITIORIES\GLENGINE\ENGINE\WORLD.CPP
C:\GITREPOSITIORIES\GLENGINE\ENGINE\DEBUG\VC141.PDB
C:\GITREPOSITIORIES\GLENGINE\ENGINE\DEBUG\VC141.IDB
C:\GITREPOSITIORIES\GLENGINE\ENGINE\DEBUG\BULLET.OBJ
C:\GITREPOSITIORIES\GLENGINE\ENGINE\DEBUG\ENGINEINSTANCE.OBJ
C:\GITREPOSITIORIES\GLENGINE\ENGINE\DEBUG\FLOOR.OBJ
C:\GITREPOSITIORIES\GLENGINE\ENGINE\DEBUG\GAMEOBJECT.OBJ
C:\GITREPOSITIORIES\GLENGINE\ENGINE\DEBUG\MAIN.OBJ
C:\GITREPOSITIORIES\GLENGINE\ENGINE\DEBUG\PICKUP.OBJ
C:\GITREPOSITIORIES\GLENGINE\ENGINE\DEBUG\PLATFORM.OBJ
C:\GITREPOSITIORIES\GLENGINE\ENGINE\DEBUG\PLAYERCHARACTER.OBJ
C:\GITREPOSITIORIES\GLENGINE\ENGINE\DEBUG\TARGET.OBJ
C:\GITREPOSITIORIES\GLENGINE\ENGINE\DEBUG\WORLD.OBJ
^C:\GITREPOSITIORIES\GLENGINE\ENGINE\ENGINEINSTANCE.CPP|C:\GITREPOSITIORIES\GLENGINE\ENGINE\WORLD.CPP
C:\GITREPOSITIORIES\GLENGINE\ENGINE\DEBUG\VC141.PDB
C:\GITREPOSITIORIES\GLENGINE\ENGINE\DEBUG\VC141.IDB
C:\GITREPOSITIORIES\GLENGINE\ENGINE\DEBUG\ENGINEINSTANCE.OBJ
C:\GITREPOSITIORIES\GLENGINE\ENGINE\DEBUG\WORLD.OBJ
^C:\GITREPOSITIORIES\GLENGINE\ENGINE\ENGINEINSTANCE.CPP|C:\GITREPOSITIORIES\GLENGINE\ENGINE\FLOOR.CPP|C:\GITREPOSITIORIES\GLENGINE\ENGINE\WORLD.CPP
C:\GITREPOSITIORIES\GLENGINE\ENGINE\DEBUG\VC141.PDB
C:\GITREPOSITIORIES\GLENGINE\ENGINE\DEBUG\VC141.IDB
C:\GITREPOSITIORIES\GLENGINE\ENGINE\DEBUG\ENGINEINSTANCE.OBJ
C:\GITREPOSITIORIES\GLENGINE\ENGINE\DEBUG\FLOOR.OBJ
C:\GITREPOSITIORIES\GLENGINE\ENGINE\DEBUG\WORLD.OBJ
^C:\GITREPOSITIORIES\GLENGINE\ENGINE\MATERIAL.CPP|C:\GITREPOSITIORIES\GLENGINE\ENGINE\PICKUP.CPP
C:\GITREPOSITIORIES\GLENGINE\ENGINE\DEBUG\VC141.PDB
C:\GITREPOSITIORIES\GLENGINE\ENGINE\DEBUG\VC141.IDB
C:\GITREPOSITIORIES\GLENGINE\ENGINE\DEBUG\MATERIAL.OBJ
C:\GITREPOSITIORIES\GLENGINE\ENGINE\DEBUG\PICKUP.OBJ
^C:\GITREPOSITIORIES\GLENGINE\ENGINE\FLOOR.CPP|C:\GITREPOSITIORIES\GLENGINE\ENGINE\TARGET.CPP
C:\GITREPOSITIORIES\GLENGINE\ENGINE\DEBUG\VC141.PDB
C:\GITREPOSITIORIES\GLENGINE\ENGINE\DEBUG\VC141.IDB
C:\GITREPOSITIORIES\GLENGINE\ENGINE\DEBUG\FLOOR.OBJ
C:\GITREPOSITIORIES\GLENGINE\ENGINE\DEBUG\TARGET.OBJ
